Shelter Animal Outcomes
…
# apply
train_1$Color_simple <- NULL
train_1$Color_simple <- sapply(train_1$Color, FUN = Color_Str_Function)

test_1$Color_simple <- NULL
test_1$Color_simple <- sapply(test_1$Color, FUN = Color_Str_Function)

train_1%>%
    group_by(Color)%>%
    summarise(count = n()) %>%
    arrange(desc(count), Color)

## # A tibble: 366 x 2
##                Color count
##                <chr> <int>
##  1       Black/White  2824
##  2             Black  2292
##  3       Brown Tabby  1635
##  4 Brown Tabby/White   940
##  5             White   931
##  6       Brown/White   884
##  7      Orange Tabby   841
##  8         Tan/White   773
##  9          Tricolor   752
## 10        Blue/White   702
## # ... with 356 more rows

train_1%>%
    group_by(Color_simple)%>%
    summarise(count = n()) %>%
    arrange(desc(count), Color_simple)

## # A tibble: 57 x 2
##     Color_simple count
##            <chr> <int>
##  1         Black  6422
##  2         White  3344
##  3   Brown Tabby  2592
##  4         Brown  1951
##  5           Tan  1674
##  6  Orange Tabby  1299
##  7          Blue  1199
##  8      Tricolor   800
##  9           Red   779
## 10 Brown Brindle   699
## # ... with 47 more rows
…
2) INTERPOLATE SexuponOutcomes NA

# Interpolation
train_1[!complete.cases(train_1),"SexuponOutcome"]  <- "Neutered Male"
train_1[!complete.cases(train_1),"Sex_Dummy"]  <- 1
# check
train_1[complete.cases(train_1) == FALSE,] # now, there is no more NA !

## # A tibble: 26,729 x 15
##     Name     OutcomeType AnimalType SexuponOutcome
##    <chr>           <chr>      <chr>          <chr>
##  1   N_O Return_to_owner        Dog  Neutered Male
##  2   N_O      Euthanasia        Cat  Spayed Female
##  3   N_O        Adoption        Dog  Neutered Male
##  4   N_X        Transfer        Cat    Intact Male
##  5   N_X        Transfer        Dog  Neutered Male
##  6   N_O        Transfer        Dog  Intact Female
##  7   N_O        Transfer        Cat    Intact Male
##  8   N_X        Transfer        Cat        Unknown
##  9   N_O        Adoption        Dog  Spayed Female
## 10   N_X        Adoption        Dog  Spayed Female
## # ... with 26,719 more rows, and 11 more variables: Breed <chr>,
## #   Color <chr>, AGE <dbl>, Income_Year <dbl>, Income_Month <fctr>,
## #   Income_Day <int>, Neutered_Dummy <dbl>, Breed_Pure <chr>,
## #   Color_simple <chr>, Breed_simple <chr>, Sex_Dummy <dbl>
…
4. DIVIDING CAT & DOG

5. MODELING

1) ONE HOT ENCODING

# data
train_1

## # A tibble: 26,729 x 15
##     Name     OutcomeType AnimalType SexuponOutcome
##    <chr>           <chr>      <chr>          <chr>
##  1   N_O Return_to_owner        Dog  Neutered Male
##  2   N_O      Euthanasia        Cat  Spayed Female
##  3   N_O        Adoption        Dog  Neutered Male
##  4   N_X        Transfer        Cat    Intact Male
##  5   N_X        Transfer        Dog  Neutered Male
##  6   N_O        Transfer        Dog  Intact Female
##  7   N_O        Transfer        Cat    Intact Male
##  8   N_X        Transfer        Cat        Unknown
##  9   N_O        Adoption        Dog  Spayed Female
## 10   N_X        Adoption        Dog  Spayed Female
## # ... with 26,719 more rows, and 11 more variables: Breed <chr>,
## #   Color <chr>, AGE <dbl>, Income_Year <dbl>, Income_Month <fctr>,
## #   Income_Day <int>, Neutered_Dummy <dbl>, Breed_Pure <chr>,
## #   Color_simple <chr>, Breed_simple <chr>, Sex_Dummy <dbl>
…
